PWD e:/UserManual/cn_EQTool/manual
INPUT d:/Software/TexLive/TexLive_File/2019/texmf.cnf
INPUT d:/Software/TexLive/TexLive_File/2019/texmf-dist/web2c/texmf.cnf
INPUT d:/Software/TexLive/TexLive_File/2019/texmf-var/web2c/xetex/xelatex.fmt
INPUT e:/UserManual/cn_EQTool/manual/EQToolUserManual.tex
OUTPUT e:\UserManual\cn_EQTool\manual/EQToolUserManual.log
INPUT d:/Software/TexLive/TexLive_File/2019/texmf-dist/tex/latex/base/book.cls
INPUT d:/Software/TexLive/TexLive_File/2019/texmf-dist/tex/latex/base/book.cls
INPUT d:/Software/TexLive/TexLive_File/2019/texmf-dist/tex/latex/base/bk10.clo
INPUT d:/Software/TexLive/TexLive_File/2019/texmf-dist/tex/latex/base/bk10.clo
INPUT d:/Software/TexLive/TexLive_File/2019/texmf-dist/tex/latex/hyperref/hyperref.sty
INPUT d:/Software/TexLive/TexLive_File/2019/texmf-dist/tex/latex/hyperref/hyperref.sty
INPUT d:/Software/TexLive/TexLive_File/2019/texmf-dist/tex/generic/oberdiek/hobsub-hyperref.sty
INPUT d:/Software/TexLive/TexLive_File/2019/texmf-dist/tex/generic/oberdiek/hobsub-hyperref.sty
INPUT d:/Software/TexLive/TexLive_File/2019/texmf-dist/tex/generic/oberdiek/hobsub-hyperref.sty
INPUT d:/Software/TexLive/TexLive_File/2019/texmf-dist/tex/generic/oberdiek/hobsub-generic.sty
INPUT d:/Software/TexLive/TexLive_File/2019/texmf-dist/tex/generic/oberdiek/hobsub-generic.sty
INPUT d:/Software/TexLive/TexLive_File/2019/texmf-dist/tex/latex/graphics/keyval.sty
INPUT d:/Software/TexLive/TexLive_File/2019/texmf-dist/tex/latex/graphics/keyval.sty
INPUT d:/Software/TexLive/TexLive_File/2019/texmf-dist/tex/generic/ifxetex/ifxetex.sty
INPUT d:/Software/TexLive/TexLive_File/2019/texmf-dist/tex/generic/ifxetex/ifxetex.sty
INPUT d:/Software/TexLive/TexLive_File/2019/texmf-dist/tex/latex/oberdiek/auxhook.sty
INPUT d:/Software/TexLive/TexLive_File/2019/texmf-dist/tex/latex/oberdiek/auxhook.sty
INPUT d:/Software/TexLive/TexLive_File/2019/texmf-dist/tex/latex/oberdiek/kvoptions.sty
INPUT d:/Software/TexLive/TexLive_File/2019/texmf-dist/tex/latex/oberdiek/kvoptions.sty
INPUT d:/Software/TexLive/TexLive_File/2019/texmf-dist/tex/latex/hyperref/pd1enc.def
INPUT d:/Software/TexLive/TexLive_File/2019/texmf-dist/tex/latex/hyperref/pd1enc.def
INPUT d:/Software/TexLive/TexLive_File/2019/texmf-dist/tex/latex/latexconfig/hyperref.cfg
INPUT d:/Software/TexLive/TexLive_File/2019/texmf-dist/tex/latex/latexconfig/hyperref.cfg
INPUT d:/Software/TexLive/TexLive_File/2019/texmf-dist/tex/latex/url/url.sty
INPUT d:/Software/TexLive/TexLive_File/2019/texmf-dist/tex/latex/url/url.sty
INPUT d:/Software/TexLive/TexLive_File/2019/texmf-dist/fonts/map/fontname/texfonts.map
INPUT d:/Software/TexLive/TexLive_File/2019/texmf-dist/fonts/tfm/adobe/zapfding/pzdr.tfm
INPUT d:/Software/TexLive/TexLive_File/2019/texmf-dist/tex/latex/hyperref/hxetex.def
INPUT d:/Software/TexLive/TexLive_File/2019/texmf-dist/tex/latex/hyperref/hxetex.def
INPUT d:/Software/TexLive/TexLive_File/2019/texmf-dist/tex/latex/hyperref/puenc.def
INPUT d:/Software/TexLive/TexLive_File/2019/texmf-dist/tex/latex/hyperref/puenc.def
INPUT d:/Software/TexLive/TexLive_File/2019/texmf-dist/tex/generic/oberdiek/stringenc.sty
INPUT d:/Software/TexLive/TexLive_File/2019/texmf-dist/tex/generic/oberdiek/stringenc.sty
INPUT d:/Software/TexLive/TexLive_File/2019/texmf-dist/tex/latex/oberdiek/rerunfilecheck.sty
INPUT d:/Software/TexLive/TexLive_File/2019/texmf-dist/tex/latex/oberdiek/rerunfilecheck.sty
INPUT d:/Software/TexLive/TexLive_File/2019/texmf-dist/tex/latex/amsfonts/amssymb.sty
INPUT d:/Software/TexLive/TexLive_File/2019/texmf-dist/tex/latex/amsfonts/amssymb.sty
INPUT d:/Software/TexLive/TexLive_File/2019/texmf-dist/tex/latex/amsfonts/amsfonts.sty
INPUT d:/Software/TexLive/TexLive_File/2019/texmf-dist/tex/latex/amsfonts/amsfonts.sty
INPUT d:/Software/TexLive/TexLive_File/2019/texmf-dist/tex/generic/mathabx/mathabx.sty
INPUT d:/Software/TexLive/TexLive_File/2019/texmf-dist/tex/generic/mathabx/mathabx.sty
INPUT d:/Software/TexLive/TexLive_File/2019/texmf-dist/tex/generic/mathabx/mathabx.dcl
INPUT d:/Software/TexLive/TexLive_File/2019/texmf-dist/tex/latex/graphics/graphicx.sty
INPUT d:/Software/TexLive/TexLive_File/2019/texmf-dist/tex/latex/graphics/graphicx.sty
INPUT d:/Software/TexLive/TexLive_File/2019/texmf-dist/tex/latex/graphics/graphics.sty
INPUT d:/Software/TexLive/TexLive_File/2019/texmf-dist/tex/latex/graphics/graphics.sty
INPUT d:/Software/TexLive/TexLive_File/2019/texmf-dist/tex/latex/graphics/trig.sty
INPUT d:/Software/TexLive/TexLive_File/2019/texmf-dist/tex/latex/graphics/trig.sty
INPUT d:/Software/TexLive/TexLive_File/2019/texmf-dist/tex/latex/graphics-cfg/graphics.cfg
INPUT d:/Software/TexLive/TexLive_File/2019/texmf-dist/tex/latex/graphics-cfg/graphics.cfg
INPUT d:/Software/TexLive/TexLive_File/2019/texmf-dist/tex/latex/graphics-def/xetex.def
INPUT d:/Software/TexLive/TexLive_File/2019/texmf-dist/tex/latex/graphics-def/xetex.def
INPUT d:/Software/TexLive/TexLive_File/2019/texmf-dist/tex/latex/ctex/ctex.sty
INPUT d:/Software/TexLive/TexLive_File/2019/texmf-dist/tex/latex/ctex/ctex.sty
INPUT d:/Software/TexLive/TexLive_File/2019/texmf-dist/tex/latex/l3kernel/expl3.sty
INPUT d:/Software/TexLive/TexLive_File/2019/texmf-dist/tex/latex/l3kernel/expl3.sty
INPUT d:/Software/TexLive/TexLive_File/2019/texmf-dist/tex/latex/l3kernel/expl3-code.tex
INPUT d:/Software/TexLive/TexLive_File/2019/texmf-dist/tex/latex/l3kernel/expl3-code.tex
INPUT d:/Software/TexLive/TexLive_File/2019/texmf-dist/fonts/tfm/public/cm/cmr10.tfm
INPUT d:/Software/TexLive/TexLive_File/2019/texmf-dist/fonts/tfm/public/cm/cmr10.tfm
INPUT d:/Software/TexLive/TexLive_File/2019/texmf-dist/fonts/tfm/public/cm/cmr10.tfm
INPUT d:/Software/TexLive/TexLive_File/2019/texmf-dist/fonts/tfm/public/cm/cmr10.tfm
INPUT d:/Software/TexLive/TexLive_File/2019/texmf-dist/fonts/tfm/public/cm/cmr10.tfm
INPUT d:/Software/TexLive/TexLive_File/2019/texmf-dist/fonts/tfm/public/cm/cmr10.tfm
INPUT d:/Software/TexLive/TexLive_File/2019/texmf-dist/fonts/tfm/public/cm/cmr10.tfm
INPUT d:/Software/TexLive/TexLive_File/2019/texmf-dist/fonts/tfm/public/cm/cmr10.tfm
INPUT d:/Software/TexLive/TexLive_File/2019/texmf-dist/fonts/tfm/public/cm/cmr10.tfm
INPUT d:/Software/TexLive/TexLive_File/2019/texmf-dist/fonts/tfm/public/cm/cmr10.tfm
INPUT d:/Software/TexLive/TexLive_File/2019/texmf-dist/tex/generic/unicode-data/UnicodeData.txt
INPUT d:/Software/TexLive/TexLive_File/2019/texmf-dist/tex/generic/unicode-data/UnicodeData.txt
INPUT d:/Software/TexLive/TexLive_File/2019/texmf-dist/tex/generic/unicode-data/CaseFolding.txt
INPUT d:/Software/TexLive/TexLive_File/2019/texmf-dist/tex/generic/unicode-data/CaseFolding.txt
INPUT d:/Software/TexLive/TexLive_File/2019/texmf-dist/tex/generic/unicode-data/SpecialCasing.txt
INPUT d:/Software/TexLive/TexLive_File/2019/texmf-dist/tex/generic/unicode-data/SpecialCasing.txt
INPUT e:\UserManual\cn_EQTool\manual/nul:
INPUT e:\UserManual\cn_EQTool\manual/nul:.tex
INPUT d:/Software/TexLive/TexLive_File/2019/texmf-dist/tex/latex/l3kernel/l3xdvipdfmx.def
INPUT d:/Software/TexLive/TexLive_File/2019/texmf-dist/tex/latex/l3kernel/l3xdvipdfmx.def
INPUT d:/Software/TexLive/TexLive_File/2019/texmf-dist/tex/latex/l3packages/xparse/xparse.sty
INPUT d:/Software/TexLive/TexLive_File/2019/texmf-dist/tex/latex/l3packages/xparse/xparse.sty
INPUT d:/Software/TexLive/TexLive_File/2019/texmf-dist/tex/latex/l3packages/l3keys2e/l3keys2e.sty
INPUT d:/Software/TexLive/TexLive_File/2019/texmf-dist/tex/latex/l3packages/l3keys2e/l3keys2e.sty
INPUT d:/Software/TexLive/TexLive_File/2019/texmf-dist/tex/latex/ctex/engine/ctex-engine-xetex.def
INPUT d:/Software/TexLive/TexLive_File/2019/texmf-dist/tex/latex/ctex/ctexhook.sty
INPUT d:/Software/TexLive/TexLive_File/2019/texmf-dist/tex/latex/ctex/ctexhook.sty
INPUT d:/Software/TexLive/TexLive_File/2019/texmf-dist/tex/latex/ctex/ctexpatch.sty
INPUT d:/Software/TexLive/TexLive_File/2019/texmf-dist/tex/latex/ctex/ctexpatch.sty
INPUT d:/Software/TexLive/TexLive_File/2019/texmf-dist/tex/latex/base/fix-cm.sty
INPUT d:/Software/TexLive/TexLive_File/2019/texmf-dist/tex/latex/base/fix-cm.sty
INPUT d:/Software/TexLive/TexLive_File/2019/texmf-dist/tex/latex/base/ts1enc.def
INPUT d:/Software/TexLive/TexLive_File/2019/texmf-dist/tex/latex/base/ts1enc.def
INPUT d:/Software/TexLive/TexLive_File/2019/texmf-dist/tex/latex/ms/everysel.sty
INPUT d:/Software/TexLive/TexLive_File/2019/texmf-dist/tex/latex/ms/everysel.sty
INPUT d:/Software/TexLive/TexLive_File/2019/texmf-dist/tex/latex/ctex/config/ctexopts.cfg
INPUT d:/Software/TexLive/TexLive_File/2019/texmf-dist/tex/latex/ctex/config/ctexopts.cfg
INPUT d:/Software/TexLive/TexLive_File/2019/texmf-dist/tex/latex/ctex/engine/ctex-engine-xetex.def
INPUT d:/Software/TexLive/TexLive_File/2019/texmf-dist/tex/latex/ctex/engine/ctex-engine-xetex.def
INPUT d:/Software/TexLive/TexLive_File/2019/texmf-dist/tex/xelatex/xecjk/xeCJK.sty
INPUT d:/Software/TexLive/TexLive_File/2019/texmf-dist/tex/xelatex/xecjk/xeCJK.sty
INPUT d:/Software/TexLive/TexLive_File/2019/texmf-dist/tex/latex/l3packages/xtemplate/xtemplate.sty
INPUT d:/Software/TexLive/TexLive_File/2019/texmf-dist/tex/latex/l3packages/xtemplate/xtemplate.sty
INPUT d:/Software/TexLive/TexLive_File/2019/texmf-dist/tex/latex/fontspec/fontspec.sty
INPUT d:/Software/TexLive/TexLive_File/2019/texmf-dist/tex/latex/fontspec/fontspec.sty
INPUT d:/Software/TexLive/TexLive_File/2019/texmf-dist/tex/latex/fontspec/fontspec-xetex.sty
INPUT d:/Software/TexLive/TexLive_File/2019/texmf-dist/tex/latex/fontspec/fontspec-xetex.sty
INPUT d:/Software/TexLive/TexLive_File/2019/texmf-dist/tex/latex/base/tuenc.def
INPUT d:/Software/TexLive/TexLive_File/2019/texmf-dist/tex/latex/base/fontenc.sty
INPUT d:/Software/TexLive/TexLive_File/2019/texmf-dist/tex/latex/base/fontenc.sty
INPUT d:/Software/TexLive/TexLive_File/2019/texmf-dist/tex/latex/base/tuenc.def
INPUT d:/Software/TexLive/TexLive_File/2019/texmf-dist/tex/latex/base/tuenc.def
INPUT d:/Software/TexLive/TexLive_File/2019/texmf-dist/tex/latex/fontspec/fontspec.cfg
INPUT d:/Software/TexLive/TexLive_File/2019/texmf-dist/tex/latex/fontspec/fontspec.cfg
INPUT d:/Software/TexLive/TexLive_File/2019/texmf-dist/tex/xelatex/xecjk/xeCJK.cfg
INPUT d:/Software/TexLive/TexLive_File/2019/texmf-dist/tex/xelatex/xecjk/xeCJK.cfg
INPUT d:/Software/TexLive/TexLive_File/2019/texmf-dist/tex/xelatex/xecjk/xeCJKfntef.sty
INPUT d:/Software/TexLive/TexLive_File/2019/texmf-dist/tex/xelatex/xecjk/xeCJKfntef.sty
INPUT d:/Software/TexLive/TexLive_File/2019/texmf-dist/tex/generic/ulem/ulem.sty
INPUT d:/Software/TexLive/TexLive_File/2019/texmf-dist/tex/generic/ulem/ulem.sty
INPUT d:/Software/TexLive/TexLive_File/2019/texmf-dist/fonts/tfm/public/latex-fonts/lasy6.tfm
INPUT d:/Software/TexLive/TexLive_File/2019/texmf-dist/tex/latex/cjk/texinput/CJKfntef.sty
INPUT d:/Software/TexLive/TexLive_File/2019/texmf-dist/tex/latex/cjk/texinput/CJKfntef.sty
INPUT d:/Software/TexLive/TexLive_File/2019/texmf-dist/tex/latex/cjk/texinput/CJKfntef.sty
INPUT d:/Software/TexLive/TexLive_File/2019/texmf-dist/tex/latex/zhnumber/zhnumber.sty
INPUT d:/Software/TexLive/TexLive_File/2019/texmf-dist/tex/latex/zhnumber/zhnumber.sty
INPUT d:/Software/TexLive/TexLive_File/2019/texmf-dist/tex/latex/zhnumber/zhnumber-utf8.cfg
INPUT d:/Software/TexLive/TexLive_File/2019/texmf-dist/tex/latex/zhnumber/zhnumber-utf8.cfg
INPUT d:/Software/TexLive/TexLive_File/2019/texmf-dist/tex/latex/zhnumber/zhnumber-utf8.cfg
INPUT d:/Software/TexLive/TexLive_File/2019/texmf-dist/tex/latex/ctex/scheme/ctex-scheme-chinese.def
INPUT d:/Software/TexLive/TexLive_File/2019/texmf-dist/tex/latex/ctex/scheme/ctex-scheme-chinese.def
INPUT d:/Software/TexLive/TexLive_File/2019/texmf-dist/tex/latex/ctex/config/ctex-name-utf8.cfg
INPUT d:/Software/TexLive/TexLive_File/2019/texmf-dist/tex/latex/ctex/config/ctex-name-utf8.cfg
INPUT d:/Software/TexLive/TexLive_File/2019/texmf-dist/tex/latex/tools/indentfirst.sty
INPUT d:/Software/TexLive/TexLive_File/2019/texmf-dist/tex/latex/tools/indentfirst.sty
INPUT d:/Software/TexLive/TexLive_File/2019/texmf-dist/tex/latex/ctex/ctex-c5size.clo
INPUT d:/Software/TexLive/TexLive_File/2019/texmf-dist/tex/latex/ctex/ctex-c5size.clo
INPUT d:/Software/TexLive/TexLive_File/2019/texmf-dist/tex/latex/ctex/fontset/ctex-fontset-windows.def
INPUT d:/Software/TexLive/TexLive_File/2019/texmf-dist/tex/latex/ctex/fontset/ctex-fontset-windows.def
INPUT d:/Software/TexLive/TexLive_File/2019/texmf-dist/tex/latex/ctex/fontset/ctex-fontset-windowsnew.def
INPUT d:/Software/TexLive/TexLive_File/2019/texmf-dist/tex/latex/ctex/fontset/ctex-fontset-windowsnew.def
INPUT c:/Windows/Fonts/msyh.ttc
INPUT d:/Software/TexLive/TexLive_File/2019/texmf-dist/tex/latex/ctex/config/ctex.cfg
INPUT d:/Software/TexLive/TexLive_File/2019/texmf-dist/tex/latex/ctex/config/ctex.cfg
INPUT e:\UserManual\cn_EQTool\manual/EQToolUserManual.aux
INPUT e:\UserManual\cn_EQTool\manual/EQToolUserManual.aux
OUTPUT e:\UserManual\cn_EQTool\manual/EQToolUserManual.aux
INPUT d:/Software/TexLive/TexLive_File/2019/texmf-dist/tex/latex/graphics/color.sty
INPUT d:/Software/TexLive/TexLive_File/2019/texmf-dist/tex/latex/graphics/color.sty
INPUT d:/Software/TexLive/TexLive_File/2019/texmf-dist/tex/latex/graphics-cfg/color.cfg
INPUT d:/Software/TexLive/TexLive_File/2019/texmf-dist/tex/latex/graphics-cfg/color.cfg
INPUT d:/Software/TexLive/TexLive_File/2019/texmf-dist/tex/latex/hyperref/nameref.sty
INPUT d:/Software/TexLive/TexLive_File/2019/texmf-dist/tex/latex/hyperref/nameref.sty
INPUT d:/Software/TexLive/TexLive_File/2019/texmf-dist/tex/generic/oberdiek/gettitlestring.sty
INPUT d:/Software/TexLive/TexLive_File/2019/texmf-dist/tex/generic/oberdiek/gettitlestring.sty
INPUT e:\UserManual\cn_EQTool\manual/EQToolUserManual.out
INPUT e:\UserManual\cn_EQTool\manual/EQToolUserManual.out
INPUT e:\UserManual\cn_EQTool\manual/EQToolUserManual.out
INPUT e:\UserManual\cn_EQTool\manual/EQToolUserManual.out
INPUT e:/UserManual/cn_EQTool/manual/EQToolUserManual.out
OUTPUT e:\UserManual\cn_EQTool\manual/EQToolUserManual.out
INPUT e:\UserManual\cn_EQTool\manual/images/Fortemedia-Logo.jpg
INPUT d:/Software/TexLive/TexLive_File/2019/texmf-dist/fonts/tfm/public/cm/cmmi12.tfm
INPUT d:/Software/TexLive/TexLive_File/2019/texmf-dist/fonts/tfm/public/cm/cmmi8.tfm
INPUT d:/Software/TexLive/TexLive_File/2019/texmf-dist/fonts/tfm/public/cm/cmmi6.tfm
INPUT d:/Software/TexLive/TexLive_File/2019/texmf-dist/fonts/tfm/public/cm/cmsy10.tfm
INPUT d:/Software/TexLive/TexLive_File/2019/texmf-dist/fonts/tfm/public/cm/cmsy8.tfm
INPUT d:/Software/TexLive/TexLive_File/2019/texmf-dist/fonts/tfm/public/cm/cmsy6.tfm
INPUT d:/Software/TexLive/TexLive_File/2019/texmf-dist/fonts/tfm/public/cm/cmex10.tfm
INPUT d:/Software/TexLive/TexLive_File/2019/texmf-dist/fonts/tfm/public/amsfonts/cmextra/cmex8.tfm
INPUT d:/Software/TexLive/TexLive_File/2019/texmf-dist/fonts/tfm/public/amsfonts/cmextra/cmex7.tfm
INPUT d:/Software/TexLive/TexLive_File/2019/texmf-dist/tex/latex/amsfonts/umsa.fd
INPUT d:/Software/TexLive/TexLive_File/2019/texmf-dist/tex/latex/amsfonts/umsa.fd
INPUT d:/Software/TexLive/TexLive_File/2019/texmf-dist/fonts/tfm/public/amsfonts/symbols/msam10.tfm
INPUT d:/Software/TexLive/TexLive_File/2019/texmf-dist/fonts/tfm/public/amsfonts/symbols/msam10.tfm
INPUT d:/Software/TexLive/TexLive_File/2019/texmf-dist/fonts/tfm/public/amsfonts/symbols/msam7.tfm
INPUT d:/Software/TexLive/TexLive_File/2019/texmf-dist/tex/latex/amsfonts/umsb.fd
INPUT d:/Software/TexLive/TexLive_File/2019/texmf-dist/tex/latex/amsfonts/umsb.fd
INPUT d:/Software/TexLive/TexLive_File/2019/texmf-dist/fonts/tfm/public/amsfonts/symbols/msbm10.tfm
INPUT d:/Software/TexLive/TexLive_File/2019/texmf-dist/fonts/tfm/public/amsfonts/symbols/msbm10.tfm
INPUT d:/Software/TexLive/TexLive_File/2019/texmf-dist/fonts/tfm/public/amsfonts/symbols/msbm7.tfm
INPUT d:/Software/TexLive/TexLive_File/2019/texmf-dist/fonts/tfm/public/mathabx/matha12.tfm
INPUT d:/Software/TexLive/TexLive_File/2019/texmf-dist/fonts/tfm/public/mathabx/matha8.tfm
INPUT d:/Software/TexLive/TexLive_File/2019/texmf-dist/fonts/tfm/public/mathabx/matha6.tfm
INPUT d:/Software/TexLive/TexLive_File/2019/texmf-dist/fonts/tfm/public/mathabx/mathb12.tfm
INPUT d:/Software/TexLive/TexLive_File/2019/texmf-dist/fonts/tfm/public/mathabx/mathb8.tfm
INPUT d:/Software/TexLive/TexLive_File/2019/texmf-dist/fonts/tfm/public/mathabx/mathb6.tfm
INPUT d:/Software/TexLive/TexLive_File/2019/texmf-dist/fonts/tfm/public/mathabx/mathx10.tfm
INPUT d:/Software/TexLive/TexLive_File/2019/texmf-dist/fonts/tfm/public/mathabx/mathx10.tfm
INPUT d:/Software/TexLive/TexLive_File/2019/texmf-dist/fonts/tfm/public/mathabx/mathx10.tfm
INPUT d:/Software/TexLive/TexLive_File/2019/texmf-dist/fonts/tfm/public/cm/cmr12.tfm
INPUT d:/Software/TexLive/TexLive_File/2019/texmf-dist/fonts/tfm/public/cm/cmr8.tfm
INPUT d:/Software/TexLive/TexLive_File/2019/texmf-dist/fonts/tfm/public/cm/cmr6.tfm
OUTPUT e:\UserManual\cn_EQTool\manual/EQToolUserManual.xdv
INPUT e:\UserManual\cn_EQTool\manual/EQToolUserManual.toc
INPUT e:\UserManual\cn_EQTool\manual/EQToolUserManual.toc
INPUT d:/Software/TexLive/TexLive_File/2019/texmf-dist/fonts/tfm/public/cm/cmmi10.tfm
INPUT d:/Software/TexLive/TexLive_File/2019/texmf-dist/fonts/tfm/public/cm/cmsy10.tfm
INPUT d:/Software/TexLive/TexLive_File/2019/texmf-dist/fonts/tfm/public/cm/cmex10.tfm
INPUT d:/Software/TexLive/TexLive_File/2019/texmf-dist/fonts/tfm/public/amsfonts/cmextra/cmex7.tfm
INPUT d:/Software/TexLive/TexLive_File/2019/texmf-dist/fonts/tfm/public/amsfonts/cmextra/cmex7.tfm
INPUT d:/Software/TexLive/TexLive_File/2019/texmf-dist/fonts/tfm/public/amsfonts/symbols/msam10.tfm
INPUT d:/Software/TexLive/TexLive_File/2019/texmf-dist/fonts/tfm/public/amsfonts/symbols/msam7.tfm
INPUT d:/Software/TexLive/TexLive_File/2019/texmf-dist/fonts/tfm/public/amsfonts/symbols/msam5.tfm
INPUT d:/Software/TexLive/TexLive_File/2019/texmf-dist/fonts/tfm/public/amsfonts/symbols/msbm10.tfm
INPUT d:/Software/TexLive/TexLive_File/2019/texmf-dist/fonts/tfm/public/amsfonts/symbols/msbm7.tfm
INPUT d:/Software/TexLive/TexLive_File/2019/texmf-dist/fonts/tfm/public/amsfonts/symbols/msbm5.tfm
INPUT d:/Software/TexLive/TexLive_File/2019/texmf-dist/fonts/tfm/public/mathabx/matha10.tfm
INPUT d:/Software/TexLive/TexLive_File/2019/texmf-dist/fonts/tfm/public/mathabx/matha7.tfm
INPUT d:/Software/TexLive/TexLive_File/2019/texmf-dist/fonts/tfm/public/mathabx/matha5.tfm
INPUT d:/Software/TexLive/TexLive_File/2019/texmf-dist/fonts/tfm/public/mathabx/mathb10.tfm
INPUT d:/Software/TexLive/TexLive_File/2019/texmf-dist/fonts/tfm/public/mathabx/mathb7.tfm
INPUT d:/Software/TexLive/TexLive_File/2019/texmf-dist/fonts/tfm/public/mathabx/mathb5.tfm
INPUT d:/Software/TexLive/TexLive_File/2019/texmf-dist/fonts/tfm/public/mathabx/mathx10.tfm
INPUT d:/Software/TexLive/TexLive_File/2019/texmf-dist/fonts/tfm/public/mathabx/mathx10.tfm
INPUT d:/Software/TexLive/TexLive_File/2019/texmf-dist/fonts/tfm/public/mathabx/mathx10.tfm
INPUT d:/Software/TexLive/TexLive_File/2019/texmf-dist/fonts/tfm/public/cm/cmr10.tfm
OUTPUT e:\UserManual\cn_EQTool\manual/EQToolUserManual.toc
INPUT e:/UserManual/cn_EQTool/manual/introduction.tex
INPUT e:/UserManual/cn_EQTool/manual/introduction.tex
INPUT e:\UserManual\cn_EQTool\manual/images/EQflow.PNG
INPUT e:/UserManual/cn_EQTool/manual/hardware.tex
INPUT e:/UserManual/cn_EQTool/manual/hardware.tex
INPUT e:\UserManual\cn_EQTool\manual/images/HW_1.PNG
INPUT e:\UserManual\cn_EQTool\manual/images/HW_2.PNG
INPUT e:\UserManual\cn_EQTool\manual/images/HW_3.PNG
INPUT e:\UserManual\cn_EQTool\manual/images/NE_position.PNG
INPUT e:\UserManual\cn_EQTool\manual/images/STD_position2.PNG
INPUT e:/UserManual/cn_EQTool/manual/setting.tex
INPUT e:/UserManual/cn_EQTool/manual/setting.tex
INPUT e:\UserManual\cn_EQTool\manual/images/setting1.jpg
INPUT e:/UserManual/cn_EQTool/manual/mainmenu.tex
INPUT e:/UserManual/cn_EQTool/manual/mainmenu.tex
INPUT e:\UserManual\cn_EQTool\manual/images/menu7.jpg
INPUT e:\UserManual\cn_EQTool\manual/images/menu4.jpg
INPUT e:\UserManual\cn_EQTool\manual/images/menu5.jpg
INPUT e:\UserManual\cn_EQTool\manual/images/menu6.jpg
INPUT e:\UserManual\cn_EQTool\manual/images/menu9.jpg
INPUT e:\UserManual\cn_EQTool\manual/images/menu1.jpg
INPUT e:\UserManual\cn_EQTool\manual/images/menu10.jpg
INPUT e:\UserManual\cn_EQTool\manual/images/menu2.jpg
INPUT e:\UserManual\cn_EQTool\manual/images/menu11.jpg
INPUT e:\UserManual\cn_EQTool\manual/images/menu3.jpg
INPUT e:\UserManual\cn_EQTool\manual/images/menu8.jpg
INPUT e:/UserManual/cn_EQTool/manual/EQ.tex
INPUT e:/UserManual/cn_EQTool/manual/EQ.tex
INPUT e:\UserManual\cn_EQTool\manual/images/UI.jpg
INPUT e:\UserManual\cn_EQTool\manual/images/process.jpg
INPUT e:\UserManual\cn_EQTool\manual/images/process1.jpg
INPUT e:\UserManual\cn_EQTool\manual/images/process2.jpg
INPUT e:\UserManual\cn_EQTool\manual/images/process3.jpg
INPUT e:\UserManual\cn_EQTool\manual/EQToolUserManual.aux
INPUT e:/UserManual/cn_EQTool/manual/EQToolUserManual.out
