\contentsline {chapter}{\numberline {1}工具介绍}{1}{chapter.1}% 
\contentsline {chapter}{\numberline {2}硬件及环境搭建}{3}{chapter.2}% 
\contentsline {section}{\numberline {2.1}硬件需求}{3}{section.2.1}% 
\contentsline {section}{\numberline {2.2}CVIP均衡线路连接及环境搭建}{3}{section.2.2}% 
\contentsline {section}{\numberline {2.3}实车喇叭位置摆放}{5}{section.2.3}% 
\contentsline {section}{\numberline {2.4}实车标麦位置摆放}{5}{section.2.4}% 
\contentsline {chapter}{\numberline {3}均衡界面设置}{7}{chapter.3}% 
\contentsline {chapter}{\numberline {4}主菜单简介}{8}{chapter.4}% 
\contentsline {section}{\numberline {4.1}硬件及校准}{8}{section.4.1}% 
\contentsline {section}{\numberline {4.2}设置}{9}{section.4.2}% 
\contentsline {section}{\numberline {4.3}选项}{10}{section.4.3}% 
\contentsline {section}{\numberline {4.4}授权}{11}{section.4.4}% 
\contentsline {section}{\numberline {4.5}帮助}{11}{section.4.5}% 
\contentsline {chapter}{\numberline {5}均衡}{13}{chapter.5}% 
\contentsline {section}{\numberline {5.1}开始}{13}{section.5.1}% 
\contentsline {section}{\numberline {5.2}导出EQ曲线}{14}{section.5.2}% 
